
{
    "classes":[
        {
            "class_name":"ThreadExample",
            "package_name":"Rec6",
            "abstract":false,
            "interface":false,
            "parent_class":"Application",
            "child_class":"",
            "variables":[
                {
                    "variable_name":"START_TEXT",
                    "variable_tyle":"String",
                    "variable_static":true,
                    "variable_access":"public"
                },
                {
                    "variable_name":"PAUSE_TEXT",
                    "variable_tyle":"String",
                    "variable_static":true,
                    "variable_access":"public"
                },
                {
                    "variable_name":"window",
                    "variable_tyle":"Stage",
                    "variable_static":false,
                    "variable_access":"private"
                },
                {
                    "variable_name":"appPane",
                    "variable_tyle":"BorderPane",
                    "variable_static":false,
                    "variable_access":"private"
                },
                {
                    "variable_name":"topPane",
                    "variable_tyle":"FlowPane",
                    "variable_static":false,
                    "variable_access":"private"
                },
                {
                    "variable_name":"startButton",
                    "variable_tyle":"Button",
                    "variable_static":false,
                    "variable_access":"private"
                },
                {
                    "variable_name":"pauseButton",
                    "variable_tyle":"Button",
                    "variable_static":false,
                    "variable_access":"private"
                },
                {
                    "variable_name":"scrollPane",
                    "variable_tyle":"ScrollPane",
                    "variable_static":false,
                    "variable_access":"private"
                },
                {
                    "variable_name":"textArea",
                    "variable_tyle":"TextArea",
                    "variable_static":false,
                    "variable_access":"private"
                },
                {
                    "variable_name":"dateThread",
                    "variable_tyle":"Thread",
                    "variable_static":false,
                    "variable_access":"private"
                },
                {
                    "variable_name":"dateTask",
                    "variable_tyle":"Task",
                    "variable_static":false,
                    "variable_access":"private"
                },
                {
                    "variable_name":"counterThread",
                    "variable_tyle":"Thread",
                    "variable_static":false,
                    "variable_access":"private"
                },
                {
                    "variable_name":"counterTask",
                    "variable_tyle":"Task",
                    "variable_static":false,
                    "variable_access":"private"
                },
                {
                    "variable_name":"work",
                    "variable_tyle":"boolean",
                    "variable_static":false,
                    "variable_access":"private"
                }
            ],
            "methods":[
                {
                    "method_name":"start",
                    "method_return":"void",
                    "method_static":false,
                    "method_abstract":false,
                    "method_access":"public",
                    "method_arguments":[
                        {
                            "argument_type":"Stage",
                            "argument_name":"primaryStage"
                        }
                    ]
                },
                {
                    "method_name":"startWork",
                    "method_return":"void",
                    "method_static":false,
                    "method_abstract":false,
                    "method_access":"public",
                    "method_arguments":[
                    ]
                },
                {
                    "method_name":"pauseWork",
                    "method_return":"void",
                    "method_static":false,
                    "method_abstract":false,
                    "method_access":"public",
                    "method_arguments":[
                    ]
                },
                {
                    "method_name":"doWork",
                    "method_return":"boolean",
                    "method_static":false,
                    "method_abstract":false,
                    "method_access":"public",
                    "method_arguments":[
                    ]
                },
                {
                    "method_name":"appendText",
                    "method_return":"void",
                    "method_static":false,
                    "method_abstract":false,
                    "method_access":"public",
                    "method_arguments":[
                        {
                            "argument_type":"String",
                            "argument_name":"textToAppend"
                        }
                    ]
                },
                {
                    "method_name":"sleep",
                    "method_return":"void",
                    "method_static":false,
                    "method_abstract":false,
                    "method_access":"public",
                    "method_arguments":[
                        {
                            "argument_type":"int",
                            "argument_name":"timeToSleep"
                        }
                    ]
                },
                {
                    "method_name":"initLayout",
                    "method_return":"void",
                    "method_static":false,
                    "method_abstract":false,
                    "method_access":"private",
                    "method_arguments":[
                    ]
                },
                {
                    "method_name":"initHandlers",
                    "method_return":"void",
                    "method_static":false,
                    "method_abstract":false,
                    "method_access":"private",
                    "method_arguments":[
                    ]
                },
                {
                    "method_name":"initWindow",
                    "method_return":"void",
                    "method_static":false,
                    "method_abstract":false,
                    "method_access":"private",
                    "method_arguments":[
                        {
                            "argument_type":"Stage",
                            "argument_name":"initPrimaryStage"
                        }
                    ]
                },
                {
                    "method_name":"initThreads",
                    "method_return":"void",
                    "method_static":false,
                    "method_abstract":false,
                    "method_access":"private",
                    "method_arguments":[
                    ]
                },
                {
                    "method_name":"main",
                    "method_return":"void",
                    "method_static":true,
                    "method_abstract":false,
                    "method_access":"public",
                    "method_arguments":[
                        {
                            "argument_type":"String[]",
                            "argument_name":"args"
                        }
                    ]
                }
            ],
            "class_pane":{
                "pane_x":0.0,
                "pane_y":0.0,
                "pane_height":0.0,
                "pane_width":0.0
            }
        },
        {
            "class_name":"CounterTask",
            "package_name":"Rec6",
            "abstract":false,
            "interface":false,
            "parent_class":"Task",
            "child_class":"",
            "variables":[
                {
                    "variable_name":"app",
                    "variable_tyle":"ThreadExample",
                    "variable_static":false,
                    "variable_access":"private"
                },
                {
                    "variable_name":"counter",
                    "variable_tyle":"int",
                    "variable_static":false,
                    "variable_access":"private"
                }
            ],
            "methods":[
                {
                    "method_name":"CounterTask",
                    "method_return":"",
                    "method_static":false,
                    "method_abstract":false,
                    "method_access":"public",
                    "method_arguments":[
                        {
                            "argument_type":"ThreadExample",
                            "argument_name":"initApp"
                        }
                    ]
                },
                {
                    "method_name":"call",
                    "method_return":"Void",
                    "method_static":false,
                    "method_abstract":false,
                    "method_access":"public",
                    "method_arguments":[
                    ]
                }
            ],
            "class_pane":{
                "pane_x":0.0,
                "pane_y":150.0,
                "pane_height":0.0,
                "pane_width":0.0
            }
        },
        {
            "class_name":"DateTask",
            "package_name":"Rec6",
            "abstract":false,
            "interface":false,
            "parent_class":"Task",
            "child_class":"",
            "variables":[
                {
                    "variable_name":"app",
                    "variable_tyle":"ThreadExample",
                    "variable_static":false,
                    "variable_access":"private"
                },
                {
                    "variable_name":"now",
                    "variable_tyle":"Date",
                    "variable_static":false,
                    "variable_access":"private"
                }
            ],
            "methods":[
                {
                    "method_name":"DateTask",
                    "method_return":"",
                    "method_static":false,
                    "method_abstract":false,
                    "method_access":"public",
                    "method_arguments":[
                        {
                            "argument_type":"ThreadExample",
                            "argument_name":"initApp"
                        }
                    ]
                },
                {
                    "method_name":"call",
                    "method_return":"Void",
                    "method_static":false,
                    "method_abstract":false,
                    "method_access":"public",
                    "method_arguments":[
                    ]
                }
            ],
            "class_pane":{
                "pane_x":400.0,
                "pane_y":0.0,
                "pane_height":0.0,
                "pane_width":0.0
            }
        },
        {
            "class_name":"PauseHandler",
            "package_name":"Rec6",
            "abstract":false,
            "interface":false,
            "parent_class":"",
            "child_class":"",
            "variables":[
                {
                    "variable_name":"app",
                    "variable_tyle":"ThreadExample",
                    "variable_static":false,
                    "variable_access":"private"
                }
            ],
            "methods":[
                {
                    "method_name":"PauseHandler",
                    "method_return":"",
                    "method_static":false,
                    "method_abstract":false,
                    "method_access":"public",
                    "method_arguments":[
                        {
                            "argument_type":"ThreadExample",
                            "argument_name":"initApp"
                        }
                    ]
                },
                {
                    "method_name":"handle",
                    "method_return":"void",
                    "method_static":false,
                    "method_abstract":false,
                    "method_access":"public",
                    "method_arguments":[
                        {
                            "argument_type":"Event",
                            "argument_name":"event"
                        }
                    ]
                }
            ],
            "class_pane":{
                "pane_x":400.0,
                "pane_y":150.0,
                "pane_height":0.0,
                "pane_width":0.0
            }
        },
        {
            "class_name":"StartHandler",
            "package_name":"Rec6",
            "abstract":false,
            "interface":false,
            "parent_class":"",
            "child_class":"",
            "variables":[
                {
                    "variable_name":"app",
                    "variable_tyle":"ThreadExample",
                    "variable_static":false,
                    "variable_access":"private"
                }
            ],
            "methods":[
                {
                    "method_name":"StartHandler",
                    "method_return":"",
                    "method_static":false,
                    "method_abstract":false,
                    "method_access":"public",
                    "method_arguments":[
                        {
                            "argument_type":"ThreadExample",
                            "argument_name":"initApp"
                        }
                    ]
                },
                {
                    "method_name":"handle",
                    "method_return":"void",
                    "method_static":false,
                    "method_abstract":false,
                    "method_access":"public",
                    "method_arguments":[
                        {
                            "argument_type":"Event",
                            "argument_name":"event"
                        }
                    ]
                }
            ],
            "class_pane":{
                "pane_x":0.0,
                "pane_y":300.0,
                "pane_height":0.0,
                "pane_width":0.0
            }
        }
    ]
}