
{
    "classes":[
        {
            "class_name":"Dummy",
            "package_name":"",
            "abstract":false,
            "interface":false,
            "parent_class":"",
            "child_class":"",
            "variables":[
                {
                    "variable_name":"hey",
                    "variable_tyle":"friend",
                    "variable_static":true,
                    "variable_access":"private"
                }
            ],
            "methods":[
            ],
            "class_pane":{
                "pane_x":176.0,
                "pane_y":201.0,
                "pane_height":150.0,
                "pane_width":402.0
            }
        }
    ]
}